%YAML 1.1
%TAG !u! tag:unity3d.com,2011:
--- !u!1 &4831456077966807712
GameObject:
  m_ObjectHideFlags: 0
  m_CorrespondingSourceObject: {fileID: 0}
  m_PrefabInstance: {fileID: 0}
  m_PrefabAsset: {fileID: 0}
  serializedVersion: 6
  m_Component:
  - component: {fileID: 4831456077966807715}
  - component: {fileID: 4831456077966807717}
  - component: {fileID: 4831456077966807714}
  m_Layer: 5
  m_Name: WinnerPanel
  m_TagString: Untagged
  m_Icon: {fileID: 0}
  m_NavMeshLayer: 0
  m_StaticEditorFlags: 0
  m_IsActive: 1
--- !u!224 &4831456077966807715
RectTransform:
  m_ObjectHideFlags: 0
  m_CorrespondingSourceObject: {fileID: 0}
  m_PrefabInstance: {fileID: 0}
  m_PrefabAsset: {fileID: 0}
  m_GameObject: {fileID: 4831456077966807712}
  m_LocalRotation: {x: 0, y: 0, z: 0, w: 1}
  m_LocalPosition: {x: 0, y: 0, z: 0}
  m_LocalScale: {x: 1.0016814, y: 1.0016814, z: 1.0016814}
  m_Children:
  - {fileID: 224000013806114552}
  m_Father: {fileID: 0}
  m_RootOrder: 0
  m_LocalEulerAnglesHint: {x: 0, y: 0, z: 0}
  m_AnchorMin: {x: 0, y: 0}
  m_AnchorMax: {x: 1, y: 1}
  m_AnchoredPosition: {x: 0, y: 0}
  m_SizeDelta: {x: 0, y: 0}
  m_Pivot: {x: 0.5, y: 0.5}
--- !u!222 &4831456077966807717
CanvasRenderer:
  m_ObjectHideFlags: 0
  m_CorrespondingSourceObject: {fileID: 0}
  m_PrefabInstance: {fileID: 0}
  m_PrefabAsset: {fileID: 0}
  m_GameObject: {fileID: 4831456077966807712}
  m_CullTransparentMesh: 0
--- !u!114 &4831456077966807714
MonoBehaviour:
  m_ObjectHideFlags: 0
  m_CorrespondingSourceObject: {fileID: 0}
  m_PrefabInstance: {fileID: 0}
  m_PrefabAsset: {fileID: 0}
  m_GameObject: {fileID: 4831456077966807712}
  m_Enabled: 1
  m_EditorHideFlags: 0
  m_Script: {fileID: 11500000, guid: fe87c0e1cc204ed48ad3b37840f39efc, type: 3}
  m_Name: 
  m_EditorClassIdentifier: 
  m_Material: {fileID: 0}
  m_Color: {r: 0, g: 0, b: 0, a: 0.70980394}
  m_RaycastTarget: 1
  m_Maskable: 1
  m_OnCullStateChanged:
    m_PersistentCalls:
      m_Calls: []
  m_Sprite: {fileID: 10907, guid: 0000000000000000f000000000000000, type: 0}
  m_Type: 1
  m_PreserveAspect: 0
  m_FillCenter: 1
  m_FillMethod: 4
  m_FillAmount: 1
  m_FillClockwise: 1
  m_FillOrigin: 0
  m_UseSpriteMesh: 0
  m_PixelsPerUnitMultiplier: 1
--- !u!1001 &2595482025992498355
PrefabInstance:
  m_ObjectHideFlags: 0
  serializedVersion: 2
  m_Modification:
    m_TransformParent: {fileID: 4831456077966807715}
    m_Modifications:
    - target: {fileID: 2595916885004256415, guid: 034a68812237dca41b2d1c26cbf485bf,
        type: 3}
      propertyPath: m_Name
      value: Victory
      objectReference: {fileID: 0}
    - target: {fileID: 2706666955060902649, guid: 034a68812237dca41b2d1c26cbf485bf,
        type: 3}
      propertyPath: m_Material
      value: 
      objectReference: {fileID: 0}
    - target: {fileID: 2706666955425399977, guid: 034a68812237dca41b2d1c26cbf485bf,
        type: 3}
      propertyPath: m_Material
      value: 
      objectReference: {fileID: 0}
    - target: {fileID: 2706667010169206843, guid: 034a68812237dca41b2d1c26cbf485bf,
        type: 3}
      propertyPath: m_Material
      value: 
      objectReference: {fileID: 0}
    - target: {fileID: 2706667010201088471, guid: 034a68812237dca41b2d1c26cbf485bf,
        type: 3}
      propertyPath: m_Material
      value: 
      objectReference: {fileID: 0}
    - target: {fileID: 2706667012127069627, guid: 034a68812237dca41b2d1c26cbf485bf,
        type: 3}
      propertyPath: m_Material
      value: 
      objectReference: {fileID: 0}
    - target: {fileID: 2706667012306625079, guid: 034a68812237dca41b2d1c26cbf485bf,
        type: 3}
      propertyPath: m_Material
      value: 
      objectReference: {fileID: 0}
    - target: {fileID: 2706667012547944461, guid: 034a68812237dca41b2d1c26cbf485bf,
        type: 3}
      propertyPath: m_Material
      value: 
      objectReference: {fileID: 0}
    - target: {fileID: 2706667013817037177, guid: 034a68812237dca41b2d1c26cbf485bf,
        type: 3}
      propertyPath: m_Material
      value: 
      objectReference: {fileID: 0}
    - target: {fileID: 2818919071455197771, guid: 034a68812237dca41b2d1c26cbf485bf,
        type: 3}
      propertyPath: m_LocalPosition.x
      value: 0
      objectReference: {fileID: 0}
    - target: {fileID: 2818919071455197771, guid: 034a68812237dca41b2d1c26cbf485bf,
        type: 3}
      propertyPath: m_LocalPosition.y
      value: 0
      objectReference: {fileID: 0}
    - target: {fileID: 2818919071455197771, guid: 034a68812237dca41b2d1c26cbf485bf,
        type: 3}
      propertyPath: m_LocalPosition.z
      value: 0
      objectReference: {fileID: 0}
    - target: {fileID: 2818919071455197771, guid: 034a68812237dca41b2d1c26cbf485bf,
        type: 3}
      propertyPath: m_LocalRotation.x
      value: -0
      objectReference: {fileID: 0}
    - target: {fileID: 2818919071455197771, guid: 034a68812237dca41b2d1c26cbf485bf,
        type: 3}
      propertyPath: m_LocalRotation.y
      value: -0
      objectReference: {fileID: 0}
    - target: {fileID: 2818919071455197771, guid: 034a68812237dca41b2d1c26cbf485bf,
        type: 3}
      propertyPath: m_LocalRotation.z
      value: -0
      objectReference: {fileID: 0}
    - target: {fileID: 2818919071455197771, guid: 034a68812237dca41b2d1c26cbf485bf,
        type: 3}
      propertyPath: m_LocalRotation.w
      value: 1
      objectReference: {fileID: 0}
    - target: {fileID: 2818919071455197771, guid: 034a68812237dca41b2d1c26cbf485bf,
        type: 3}
      propertyPath: m_RootOrder
      value: 0
      objectReference: {fileID: 0}
    - target: {fileID: 2818919071455197771, guid: 034a68812237dca41b2d1c26cbf485bf,
        type: 3}
      propertyPath: m_LocalEulerAnglesHint.x
      value: 0
      objectReference: {fileID: 0}
    - target: {fileID: 2818919071455197771, guid: 034a68812237dca41b2d1c26cbf485bf,
        type: 3}
      propertyPath: m_LocalEulerAnglesHint.y
      value: 0
      objectReference: {fileID: 0}
    - target: {fileID: 2818919071455197771, guid: 034a68812237dca41b2d1c26cbf485bf,
        type: 3}
      propertyPath: m_LocalEulerAnglesHint.z
      value: 0
      objectReference: {fileID: 0}
    - target: {fileID: 2818919071455197771, guid: 034a68812237dca41b2d1c26cbf485bf,
        type: 3}
      propertyPath: m_AnchoredPosition.x
      value: 84.857315
      objectReference: {fileID: 0}
    - target: {fileID: 2818919071455197771, guid: 034a68812237dca41b2d1c26cbf485bf,
        type: 3}
      propertyPath: m_AnchoredPosition.y
      value: 257.56693
      objectReference: {fileID: 0}
    - target: {fileID: 2818919071455197771, guid: 034a68812237dca41b2d1c26cbf485bf,
        type: 3}
      propertyPath: m_SizeDelta.x
      value: 100
      objectReference: {fileID: 0}
    - target: {fileID: 2818919071455197771, guid: 034a68812237dca41b2d1c26cbf485bf,
        type: 3}
      propertyPath: m_SizeDelta.y
      value: 100
      objectReference: {fileID: 0}
    - target: {fileID: 2818919071455197771, guid: 034a68812237dca41b2d1c26cbf485bf,
        type: 3}
      propertyPath: m_AnchorMin.x
      value: 0.5
      objectReference: {fileID: 0}
    - target: {fileID: 2818919071455197771, guid: 034a68812237dca41b2d1c26cbf485bf,
        type: 3}
      propertyPath: m_AnchorMin.y
      value: 0.5
      objectReference: {fileID: 0}
    - target: {fileID: 2818919071455197771, guid: 034a68812237dca41b2d1c26cbf485bf,
        type: 3}
      propertyPath: m_AnchorMax.x
      value: 0.5
      objectReference: {fileID: 0}
    - target: {fileID: 2818919071455197771, guid: 034a68812237dca41b2d1c26cbf485bf,
        type: 3}
      propertyPath: m_AnchorMax.y
      value: 0.5
      objectReference: {fileID: 0}
    - target: {fileID: 2818919071455197771, guid: 034a68812237dca41b2d1c26cbf485bf,
        type: 3}
      propertyPath: m_Pivot.x
      value: 0.5
      objectReference: {fileID: 0}
    - target: {fileID: 2818919071455197771, guid: 034a68812237dca41b2d1c26cbf485bf,
        type: 3}
      propertyPath: m_Pivot.y
      value: 0.5
      objectReference: {fileID: 0}
    - target: {fileID: 2818919071455197771, guid: 034a68812237dca41b2d1c26cbf485bf,
        type: 3}
      propertyPath: m_LocalScale.x
      value: 0.99832135
      objectReference: {fileID: 0}
    - target: {fileID: 2818919071455197771, guid: 034a68812237dca41b2d1c26cbf485bf,
        type: 3}
      propertyPath: m_LocalScale.y
      value: 0.99832135
      objectReference: {fileID: 0}
    - target: {fileID: 2818919071455197771, guid: 034a68812237dca41b2d1c26cbf485bf,
        type: 3}
      propertyPath: m_LocalScale.z
      value: 0.99832135
      objectReference: {fileID: 0}
    m_RemovedComponents: []
  m_SourcePrefab: {fileID: 100100000, guid: 034a68812237dca41b2d1c26cbf485bf, type: 3}
--- !u!224 &224000013806114552 stripped
RectTransform:
  m_CorrespondingSourceObject: {fileID: 2818919071455197771, guid: 034a68812237dca41b2d1c26cbf485bf,
    type: 3}
  m_PrefabInstance: {fileID: 2595482025992498355}
  m_PrefabAsset: {fileID: 0}
