%YAML 1.1
%TAG !u! tag:unity3d.com,2011:
--- !u!1045 &1
EditorBuildSettings:
  m_ObjectHideFlags: 0
  serializedVersion: 2
  m_Scenes:
  - enabled: 1
    path: Assets/[4]Scenes/Loading.unity
    guid: b8a271888156ac94caba49f87c557cac
  - enabled: 1
    path: Assets/[4]Scenes/MainMenu.unity
    guid: 4eb3155cbd773e042ba995d3f2621f62
  - enabled: 1
    path: Assets/[4]Scenes/Level-1.unity
    guid: b38409e72b923694da48657af92f838a
  - enabled: 1
    path: Assets/[4]Scenes/Level-2.unity
    guid: c01fbeba06051eb48b676fa5531cae74
  - enabled: 1
    path: Assets/[4]Scenes/Level-3.unity
    guid: c3e2bafb2d7aea446a2254ec8b94a85f
  - enabled: 1
    path: Assets/[4]Scenes/Level-4.unity
    guid: b23b8dd7e84cea344b540569ee9a9fb3
  - enabled: 1
    path: Assets/[4]Scenes/Level-5.unity
    guid: 4e5b9a586428f9e428c6ff98b039505f
  - enabled: 1
    path: Assets/[4]Scenes/Level-6.unity
    guid: e5fe8c78b06ae484dae171c747caeeb4
  - enabled: 1
    path: Assets/[4]Scenes/Level-7.unity
    guid: 9a68a3bf8a9d65548a9808d68d0356e8
  - enabled: 1
    path: Assets/[4]Scenes/Level-8.unity
    guid: 28cb66b5b7815d548a6247b96e56c27d
  - enabled: 1
    path: Assets/[4]Scenes/Level-9.unity
    guid: 65f42fd9f4b48844e93b79d3720a581f
  - enabled: 1
    path: Assets/[4]Scenes/Level-10.unity
    guid: 92bd7f38dcbd11e459a76cdbe5425a24
  - enabled: 1
    path: Assets/[4]Scenes/Level-11.unity
    guid: 7b9bb754d9b4fbd4f88aa640ee2b3aa3
  - enabled: 1
    path: Assets/[4]Scenes/Level-12.unity
    guid: 493d0096256fb604d8fda586493cd4ee
  - enabled: 1
    path: Assets/[4]Scenes/Level-13.unity
    guid: 175242db2a572834a926252c4a5edc19
  - enabled: 1
    path: Assets/[4]Scenes/Level-14.unity
    guid: 7f1e0ae494d33c143a68b73138a984c2
  - enabled: 1
    path: Assets/[4]Scenes/Level-15.unity
    guid: 81d6bd1df795a7e4b9120515f2711ea9
  - enabled: 1
    path: Assets/[4]Scenes/Level-16.unity
    guid: d7d7bd76ec51ea34d84e50d52ac5e4c1
  - enabled: 1
    path: Assets/[4]Scenes/Level-17.unity
    guid: 037bba3ec31f57b4e8538c51bef027fb
  - enabled: 1
    path: Assets/[4]Scenes/Level-18.unity
    guid: 8a90c3c6a1344bd4aa0517a05cd1941f
  - enabled: 1
    path: Assets/[4]Scenes/Level-19.unity
    guid: c7c6d70a85910a24cb410c2340ac7133
  - enabled: 1
    path: Assets/[4]Scenes/Level-20.unity
    guid: 19ab04e636c96d44eb7973a2c82fd763
  - enabled: 1
    path: Assets/[4]Scenes/Tutorial.unity
    guid: c412c07994307e040b12d2a38f22ee4f
  - enabled: 1
    path: Assets/[4]Scenes/LevelClassic -1.unity
    guid: 43955071d1e4e744b9c8977702bfbeef
  - enabled: 1
    path: Assets/[4]Scenes/LevelClassic -2.unity
    guid: d66b481e48fe1a84d841c405853468f9
  - enabled: 1
    path: Assets/[4]Scenes/LevelClassic -3.unity
    guid: 232de4e388f8d8c43990847601acba14
  - enabled: 1
    path: Assets/[4]Scenes/LevelClassic -4.unity
    guid: 95a012baff0facd4da24c880e5347c6f
  - enabled: 1
    path: Assets/[4]Scenes/LevelClassic -5.unity
    guid: 4c9df3b730247bc4197c306c6d9e55a2
  - enabled: 1
    path: Assets/[4]Scenes/LevelClassic -6.unity
    guid: 48e6728713e628640a7c337b4875f8d7
  - enabled: 1
    path: Assets/[4]Scenes/LevelClassic -7.unity
    guid: 3b0519f38bf3d9949ba2a9a8d6515691
  - enabled: 1
    path: Assets/[4]Scenes/LevelClassic -8.unity
    guid: a47c3870850a4894988e76dbe5364172
  - enabled: 1
    path: Assets/[4]Scenes/LevelClassic -9.unity
    guid: 30e215a63699253478a26bd9c32a1227
  - enabled: 1
    path: Assets/[4]Scenes/LevelClassic -10.unity
    guid: b4f6c7b86be814248ab1516f6579ed1a
  - enabled: 1
    path: Assets/[4]Scenes/LevelPvp1.unity
    guid: e58b786e6d315c74cb69c03df332aba0
  - enabled: 1
    path: Assets/[4]Scenes/LevelPvp2.unity
    guid: c9484c3c2b3881247af59be6b0043f0b
  - enabled: 1
    path: Assets/[4]Scenes/LevelPvp3.unity
    guid: 1f46f6d67da1c6b489c202aa353f84a8
  - enabled: 1
    path: Assets/[4]Scenes/LevelPvp4.unity
    guid: 4a725814483b94c40968c5508eefcfd8
  - enabled: 1
    path: Assets/[4]Scenes/LevelPvp5.unity
    guid: 8c29662aff85bbf449fb12d329f18514
  - enabled: 1
    path: Assets/[4]Scenes/LevelPvp6.unity
    guid: 8a6e78deb3a589746a349dab47b4eddb
  - enabled: 1
    path: Assets/[4]Scenes/LevelPvp7.unity
    guid: bddd7d5eabb7531448fa3808372e5033
  - enabled: 1
    path: Assets/[4]Scenes/LevelPvp8.unity
    guid: faf1a1cea73b9f34f81ae599b20f3330
  - enabled: 1
    path: Assets/[4]Scenes/LevelPvp9.unity
    guid: 6f217c54b26fea84e811eb8a77e035ae
  - enabled: 1
    path: Assets/[4]Scenes/LevelPvp10.unity
    guid: fe5d290ecdf415541aec5e904db3fe3b
  m_configObjects: {}
